<?xml version="1.0" encoding="UTF-8" standalone="no"?>
<!-- Generator: Adobe Illustrator 23.0.0, SVG Export Plug-In . SVG Version: 6.00 Build 0)  -->

<svg
   xmlns:dc="http://purl.org/dc/elements/1.1/"
   xmlns:cc="http://creativecommons.org/ns#"
   xmlns:rdf="http://www.w3.org/1999/02/22-rdf-syntax-ns#"
   xmlns:svg="http://www.w3.org/2000/svg"
   xmlns="http://www.w3.org/2000/svg"
   xmlns:xlink="http://www.w3.org/1999/xlink"
   xmlns:sodipodi="http://sodipodi.sourceforge.net/DTD/sodipodi-0.dtd"
   xmlns:inkscape="http://www.inkscape.org/namespaces/inkscape"
   version="1.1"
   id="Ebene_1"
   x="0px"
   y="0px"
   viewBox="0 0 1024 768"
   style="enable-background:new 0 0 1024 768;"
   xml:space="preserve"
   sodipodi:docname="B&amp;B_Logo_RGB-with-url.svg"
   inkscape:version="0.92.3 (2405546, 2018-03-11)"
   inkscape:export-filename="/home/mac/Logo-Bits-und-Baeume/B&amp;B_Logo_RGB-url-black-bg.png"
   inkscape:export-xdpi="78.860001"
   inkscape:export-ydpi="78.860001"><metadata
   id="metadata49"><rdf:RDF><cc:Work
       rdf:about=""><dc:format>image/svg+xml</dc:format><dc:type
         rdf:resource="http://purl.org/dc/dcmitype/StillImage" /><dc:title></dc:title></cc:Work></rdf:RDF></metadata><defs
   id="defs47" /><sodipodi:namedview
   pagecolor="#ffffff"
   bordercolor="#666666"
   borderopacity="1"
   objecttolerance="10"
   gridtolerance="10"
   guidetolerance="10"
   inkscape:pageopacity="0"
   inkscape:pageshadow="2"
   inkscape:window-width="1920"
   inkscape:window-height="1051"
   id="namedview45"
   showgrid="false"
   inkscape:zoom="0.5546875"
   inkscape:cx="152.98232"
   inkscape:cy="569.30095"
   inkscape:window-x="0"
   inkscape:window-y="0"
   inkscape:window-maximized="1"
   inkscape:current-layer="g20" />
<style
   type="text/css"
   id="style2">
	.st0{clip-path:url(#SVGID_2_);fill:#1D1D1B;}
	.st1{fill:#A1C854;}
	.st2{clip-path:url(#SVGID_4_);fill:#C1D98D;}
</style>
<g
   id="g20">
	<defs
   id="defs5">
		<rect
   id="SVGID_1_"
   x="69"
   y="65.7"
   width="893.92"
   height="653.3" />
	</defs>
	<clipPath
   id="SVGID_2_">
		<use
   xlink:href="#SVGID_1_"
   style="overflow:visible;"
   id="use7" />
	</clipPath>
	<path
   class="st0"
   d="m 946.09,374.7 h -42.25 c 1.75,-13.5 9.69,-21.13 21.92,-21.13 11.59,0.01 18.74,7.63 20.33,21.13 m 15.56,6.51 c 0,-24.46 -14.45,-41.3 -35.9,-41.3 -23.19,0 -37.49,16.84 -37.49,42.57 0,26.84 14.3,44.79 38.92,44.79 18.74,0 32.72,-9.37 35.74,-26.21 l -14.77,-3.02 c -2.07,9.53 -9.85,15.57 -20.97,15.57 -14.45,0 -22.71,-10.17 -23.51,-26.84 h 57.5 c 0.17,-0.95 0.48,-3.33 0.48,-5.56 M 823.31,368.67 c 2.54,-8.1 10.32,-14.61 19.38,-14.61 10.96,0 18.11,8.42 18.11,20.65 v 50.83 h 15.25 V 373.6 c 0,-20.81 -12.71,-33.67 -29.23,-33.67 -12.39,0 -21.6,7.62 -26.05,17.47 -4.61,-10.32 -14.77,-17.47 -26.84,-17.47 -11.6,0 -19.54,6.51 -23.51,15.09 v -13.34 h -15.25 v 83.87 h 15.25 v -57.34 c 2.7,-8.1 10.48,-14.14 19.38,-14.14 11.12,0 18.11,8.42 18.11,20.49 v 50.99 h 15.41 V 368.67 Z M 697.3,427.28 c 10.64,0 20.01,-6.04 24.46,-14.93 v 13.18 h 15.25 v -83.87 h -15.25 v 57.82 c -4.29,8.1 -11.44,13.66 -20.33,13.66 -11.12,0 -18.27,-9.05 -18.27,-21.29 v -50.19 h -15.25 v 51.15 c 0.01,21.28 12.87,34.47 29.39,34.47 M 609.75,312.59 h -15.57 v 17.79 h 15.57 z m 13.19,17.79 h 15.57 v -17.79 h -15.57 z m -20.34,71.64 c 0,-7.47 5.4,-12.71 15.73,-14.61 l 17.47,-3.02 v 19.7 c -4.77,6.51 -11.28,10.64 -18.74,10.64 -8.1,0 -14.46,-4.77 -14.46,-12.71 m -21.6,-32.4 14.77,2.7 c 2.06,-11.75 10.01,-18.9 22.24,-18.9 11.12,0 17.79,6.04 17.79,15.41 0,3.34 -1.27,4.45 -4.29,5.08 l -15.25,2.7 c -20.33,3.81 -28.91,12.55 -28.91,25.73 0,14.77 10.17,24.94 25.41,24.94 10.32,0 18.9,-4.61 23.67,-11.44 v 9.69 H 651.2 V 372 c 0,-20.33 -13.34,-32.24 -33.52,-32.24 -19.84,0 -33.5,11.59 -36.68,29.86 M 517.76,328 h 23.35 c 11.44,0 17.79,5.4 17.79,15.57 0,10.32 -6.51,17.47 -17.47,17.47 h -23.67 z m 21.6,46.7 c 12.55,0 19.54,6.67 19.54,18.27 0,11.12 -6.83,18.9 -19.7,18.9 H 517.76 V 374.7 Z m 34.78,19.22 c 0,-12.71 -6.2,-21.76 -17,-26.21 10.64,-4.13 17,-13.02 17,-25.1 0,-17 -13.02,-28.27 -33.04,-28.27 h -38.6 v 111.19 h 36.22 c 21.92,0 35.42,-12.55 35.42,-31.61"
   clip-path="url(#SVGID_2_)"
   id="path10"
   inkscape:connector-curvature="0"
   transform="matrix(1.3059628,0,0,1.3059628,-336.40708,-182.83227)"
   style="fill:#1d1d1b"
   inkscape:export-xdpi="78.860001"
   inkscape:export-ydpi="78.860001" />
	<path
   class="st0"
   d="m 836.86,199.02 c 0,7.31 -5.72,14.93 -15.41,20.49 l -3.02,-3.49 c -5.56,-6.51 -7.94,-11.6 -7.94,-16.68 0,-7.62 4.92,-13.18 13.18,-13.18 8.27,0 13.19,5.72 13.19,12.86 m 7.95,68.94 c -6.2,4.45 -13.02,6.67 -20.49,6.67 -13.34,0 -23.19,-7.78 -23.19,-19.7 0,-9.37 6.35,-15.57 15.57,-20.49 z m 9.21,10.64 6.51,7.94 h 18.11 l -14.77,-17.31 c 8.26,-10.17 13.98,-23.51 16.2,-37.33 l -14.14,-3.18 c -1.75,11.75 -5.72,21.76 -11.44,29.54 l -25.26,-29.54 c 13.34,-7.62 21.92,-18.74 21.92,-30.5 0,-13.18 -10.64,-24.62 -27.48,-24.62 -17.63,0 -27.48,12.07 -27.48,25.26 0,9.05 4.61,16.36 12.71,26.21 -13.02,6.99 -23.03,15.57 -23.03,30.82 0,18.9 15.88,32.4 37.8,32.4 11.92,0 22.09,-3.65 30.35,-9.69 M 728.38,254.46 c 5.56,1.91 8.42,5.24 8.42,9.69 0,6.04 -5.24,10.96 -13.5,10.96 -9.05,0 -14.14,-6.51 -15.57,-15.88 l -14.14,2.86 c 2.54,16.36 13.03,26.21 29.7,26.21 16.36,0 28.75,-9.85 28.75,-24.14 0,-10.01 -6.19,-17.15 -20.49,-22.08 l -13.34,-4.61 c -9.05,-3.18 -12.71,-6.67 -12.71,-11.91 0,-6.83 6.35,-11.6 16.36,-11.6 11.12,0 18.27,6.67 20.33,19.38 l 14.77,-2.7 c -3.02,-19.22 -15.72,-29.7 -35.1,-29.7 -18.58,0 -31.61,9.85 -31.61,24.62 0,11.28 7.47,18.27 24.62,24.14 z m -51.47,17.95 h -6.67 c -9.37,0 -14.45,-4.77 -14.45,-14.77 v -41.3 h 26.84 v -13.66 h -26.84 v -19.7 h -11.44 l -1.27,10.64 c -0.79,6.19 -4.45,9.05 -11.75,9.05 h -6.35 v 13.66 h 15.57 v 41.3 c 0,18.74 10.96,29.54 28.75,29.54 3.02,0 5.56,-0.32 7.62,-0.64 v -14.12 z m -65.6,-102.14 h -16.52 v 17.79 h 16.52 z m -15.88,116.27 h 15.25 v -83.87 h -15.25 z m -77.67,-97.52 h 23.35 c 11.44,0 17.79,5.4 17.79,15.57 0,10.32 -6.51,17.47 -17.47,17.47 h -23.67 z m 21.6,46.7 c 12.55,0 19.54,6.67 19.54,18.27 0,11.12 -6.83,18.9 -19.7,18.9 h -21.44 v -37.17 z m 34.78,19.22 c 0,-12.71 -6.2,-21.76 -17,-26.21 10.64,-4.13 17,-13.02 17,-25.1 0,-17 -13.02,-28.27 -33.04,-28.27 h -38.6 v 111.19 h 36.22 c 21.92,-0.01 35.42,-12.55 35.42,-31.61"
   clip-path="url(#SVGID_2_)"
   id="path12"
   inkscape:connector-curvature="0"
   transform="matrix(1.3059628,0,0,1.3059628,-336.40708,-162.83227)"
   style="fill:#1d1d1b"
   inkscape:export-xdpi="78.860001"
   inkscape:export-ydpi="78.860001" />
	
	
	
<flowRoot
   xml:space="preserve"
   id="flowRoot891"
   style="font-style:normal;font-weight:normal;font-size:40px;line-height:1.25;font-family:sans-serif;letter-spacing:0px;word-spacing:0px;fill:#000000;fill-opacity:1;stroke:none"
   transform="matrix(1.2507627,0,0,1.2507627,-139.12483,-350.00769)"
   inkscape:export-xdpi="78.860001"
   inkscape:export-ydpi="78.860001"><flowRegion
     id="flowRegion893"><rect
       id="rect895"
       width="507.36404"
       height="154.24887"
       x="363.31345"
       y="584.43109" /></flowRegion><flowPara
     id="flowPara897">bits-und-baeume.org</flowPara></flowRoot></g>
<rect
   x="163.89351"
   y="388.53766"
   class="st1"
   width="3.4264278"
   height="56.395531"
   id="rect22"
   style="fill:#a1c854;stroke-width:0.59798038" />
<g
   id="g32"
   transform="matrix(0.59798041,0,0,0.59798041,27.739352,26.412687)">
	<defs
   id="defs25">
		<rect
   id="SVGID_3_"
   x="69"
   y="65.699997"
   width="893.91998"
   height="653.29999" />
	</defs>
	<clipPath
   id="SVGID_4_">
		<use
   xlink:href="#SVGID_3_"
   style="overflow:visible"
   id="use27"
   x="0"
   y="0"
   width="100%"
   height="100%" />
	</clipPath>
	<path
   class="st2"
   d="M 227.69,614.58 C 137.11,609.02 69,527.24 69,422.47 69,292.38 149.39,200.49 227.69,120.59 Z"
   clip-path="url(#SVGID_4_)"
   id="path30"
   inkscape:connector-curvature="0"
   style="fill:#c1d98d" />
</g>
<path
   class="st1"
   d="m 196.71666,262.63289 h 32.82314 v 32.82314 H 196.71666 Z M 163.89351,131.34031 v 262.5732 h 32.82315 V 361.09036 H 229.5398 V 328.2732 h 32.82314 v -32.82315 h 32.82315 V 262.62691 H 262.36294 V 229.80376 H 229.5398 v -32.82314 h -32.82314 v -32.82315 h 32.82314 v 32.82315 h 32.82314 V 164.15747 H 229.5398 v -32.82314 h -65.64629 z m 65.64031,0 h 32.82314 V 98.517165 H 229.53382 Z M 163.89351,98.523145 h 32.82315 V 65.7 h -32.82315 z m 98.46345,0 h 32.82315 V 65.7 h -32.82315 z"
   id="path34"
   inkscape:connector-curvature="0"
   style="fill:#a1c854;stroke-width:0.59798038" />
<g
   id="g42">
	<defs
   id="defs37">
		<rect
   id="SVGID_5_"
   x="69"
   y="65.7"
   width="893.92"
   height="653.3" />
	</defs>
	<clipPath
   id="SVGID_6_">
		<use
   xlink:href="#SVGID_5_"
   style="overflow:visible;"
   id="use39" />
	</clipPath>
</g>
</svg>